Building species parameter tables for medfate • traits4models
…
The species parameter table for medfate starts with
a vector of species names. Here, we will assume that those names
correspond to taxa mentioned in a national forest inventory, more
specifically the Spanish National Forest Inventory (SFI). Note that
taxon entities in a forest inventory will refer to their own taxonomic
reference. Hence, it is important to harmonize taxonomy with the
reference used in traits4models, i.e. World Flora Online. Here we
will assume that such harmonization has been conducted for the SFI taxon
list:

data("NFI_SP_mapping") 
NFI_SP_mapping

## # A tibble: 480 × 8
##    NFICode NFIName             originalName  originalNameAuthorship acceptedName
##    <chr>   <chr>               <chr>         <chr>                  <chr>       
##  1 31      Abies alba          Abies alba    Mill.                  Abies alba  
##  2 32      Abies pinsapo       Abies pinsapo Boiss.                 Abies pinsa…
##  3 307     Acacia dealbata     Acacia dealb… Link                   Acacia deal…
##  4 207     Acacia melanoxylon  Acacia melan… R.Br. in W.T.Aiton     Acacia mela…
##  5 7       Acacia spp.         Acacia        NA                     Acacia      
##  6 76      Acer campestre      Acer campest… L.                     Acer campes…
##  7 276     Acer monspessulanum Acer monspes… L.                     Acer monspe…
##  8 376     Acer negundo        Acer negundo  L.                     Acer negundo
##  9 476     Acer opalus         Acer opalus   Mill.                  Acer opalus 
## 10 676     Acer platanoides    Acer platano… L.                     Acer platan…
## # ℹ 470 more rows
## # ℹ 3 more variables: acceptedNameAuthorship <chr>, taxonomicStatus <chr>,
## #   taxonRank <chr>
…
SpParams <- traits4models::init_spparams(sp_names = spp_filt$NFIName,
                                         accepted_names = spp_filt$acceptedName,
                                         verbose = FALSE)

The result is an empty data frame, except for the first columns,
which correspond to taxonomic hierarchy of each entity (genus, family,
group, …).

SpParams |> tibble::as_tibble()

## # A tibble: 520 × 153
##    Name         SpIndex AcceptedName Species Genus Family Order Group GrowthForm
##    <chr>          <int> <chr>        <chr>   <chr> <chr>  <chr> <chr> <lgl>     
##  1 Abies              0 Abies        NA      Abies Pinac… Pina… Gymn… NA        
##  2 Abies alba         1 Abies alba   Abies … Abies Pinac… Pina… Gymn… NA        
##  3 Abies pinsa…       2 Abies pinsa… Abies … Abies Pinac… Pina… Gymn… NA        
##  4 Acacia deal…       3 Acacia deal… Acacia… Acac… Fabac… Faba… Angi… NA        
##  5 Acacia mela…       4 Acacia mela… Acacia… Acac… Fabac… Faba… Angi… NA        
##  6 Acacia spp.        5 Acacia       NA      Acac… Fabac… Faba… Angi… NA        
##  7 Acer campes…       6 Acer campes… Acer c… Acer  Sapin… Sapi… Angi… NA        
##  8 Acer monspe…       7 Acer monspe… Acer m… Acer  Sapin… Sapi… Angi… NA        
##  9 Acer negundo       8 Acer negundo Acer n… Acer  Sapin… Sapi… Angi… NA        
## 10 Acer opalus        9 Acer opalus  Acer o… Acer  Sapin… Sapi… Angi… NA        
## # ℹ 510 more rows
## # ℹ 144 more variables: LifeForm <lgl>, LeafShape <lgl>, LeafSize <lgl>,
## #   PhenologyType <lgl>, DispersalType <lgl>, Hmed <lgl>, Hmax <lgl>,
## #   Z50 <lgl>, Z95 <lgl>, fHDmin <lgl>, fHDmax <lgl>, a_ash <lgl>, b_ash <lgl>,
## #   a_bsh <lgl>, b_bsh <lgl>, a_btsh <lgl>, b_btsh <lgl>, cr <lgl>, BTsh <lgl>,
## #   a_fbt <lgl>, b_fbt <lgl>, c_fbt <lgl>, a_cr <lgl>, b_1cr <lgl>,
## #   b_2cr <lgl>, b_3cr <lgl>, c_1cr <lgl>, c_2cr <lgl>, a_cw <lgl>, …
…
