…
file <- system.file("extdata", "NFI_ES_mapping.csv", package = "traits4models")
```

``` r

NFI_ES_mapping <- read.table(file, sep=";", header=TRUE, na.strings = "") |>
  tibble::as_tibble() |>
  dplyr::select(-originalName, -originalNameAuthorship, -acceptedNameAuthorship, -NFICode) |>
  dplyr::rename(originalName = NFIName)|>
  dplyr::distinct()

NFI_ES_mapping
```

    ## # A tibble: 450 × 6
    ##    originalName        acceptedName       family genus specificEpithet taxonRank
    ##    <chr>               <chr>              <chr>  <chr> <chr>           <chr>    
    ##  1 Abies alba          Abies alba         Pinac… Abies alba            species  
    ##  2 Abies pinsapo       Abies pinsapo      Pinac… Abies pinsapo         species  
    ##  3 Acacia dealbata     Acacia dealbata    Fabac… Acac… dealbata        species  
    ##  4 Acacia melanoxylon  Acacia melanoxylon Fabac… Acac… melanoxylon     species  
    ##  5 Acacia spp.         Acacia             Fabac… Acac… NA              genus    
    ##  6 Acer campestre      Acer campestre     Sapin… Acer  campestre       species  
    ##  7 Acer monspessulanum Acer monspessulan… Sapin… Acer  monspessulanum  species  
    ##  8 Acer negundo        Acer negundo       Sapin… Acer  negundo         species  
    ##  9 Acer opalus         Acer opalus        Sapin… Acer  opalus          species  
    ## 10 Acer platanoides    Acer platanoides   Sapin… Acer  platanoides     species  
    ## # ℹ 440 more rows
…
``` r

SpParams |> tibble::as_tibble()
```

    ## # A tibble: 517 × 159
    ##    Name         SpIndex AcceptedName Species Genus Family Order Group GrowthForm
    ##    <chr>          <int> <chr>        <chr>   <chr> <chr>  <chr> <chr> <lgl>     
    ##  1 Abies              0 Abies        NA      Abies Pinac… Pina… Gymn… NA        
    ##  2 Abies alba         1 Abies alba   Abies … Abies Pinac… Pina… Gymn… NA        
    ##  3 Abies pinsa…       2 Abies pinsa… Abies … Abies Pinac… Pina… Gymn… NA        
    ##  4 Acacia deal…       3 Acacia deal… Acacia… Acac… Fabac… Faba… Angi… NA        
    ##  5 Acacia mela…       4 Acacia mela… Acacia… Acac… Fabac… Faba… Angi… NA        
    ##  6 Acacia spp.        5 Acacia       NA      Acac… Fabac… Faba… Angi… NA        
    ##  7 Acer campes…       6 Acer campes… Acer c… Acer  Sapin… Sapi… Angi… NA        
    ##  8 Acer monspe…       7 Acer monspe… Acer m… Acer  Sapin… Sapi… Angi… NA        
    ##  9 Acer negundo       8 Acer negundo Acer n… Acer  Sapin… Sapi… Angi… NA        
    ## 10 Acer opalus        9 Acer opalus  Acer o… Acer  Sapin… Sapi… Angi… NA        
    ## # ℹ 507 more rows
    ## # ℹ 150 more variables: LifeForm <lgl>, LeafShape <lgl>, LeafSize <lgl>,
    ## #   PhenologyType <lgl>, DispersalType <lgl>, Hmed <lgl>, Hmax <lgl>,
    ## #   Dmax <lgl>, Z50 <lgl>, Z95 <lgl>, fHDmin <lgl>, fHDmax <lgl>, a_ash <lgl>,
    ## #   b_ash <lgl>, a_bsh <lgl>, b_bsh <lgl>, a_btsh <lgl>, b_btsh <lgl>,
    ## #   cr <lgl>, BTsh <lgl>, a_fbt <lgl>, b_fbt <lgl>, c_fbt <lgl>, a_cr <lgl>,
    ## #   b_1cr <lgl>, b_2cr <lgl>, b_3cr <lgl>, c_1cr <lgl>, c_2cr <lgl>, …
…
``` r

sf_IFN3 <- readRDS("~/OneDrive/mcaceres_work/model_initialisation/medfate_initialisation/IFN2medfate/data/SpParamsES/IFN3/soilmod/IFN3_spain_soilmod_WGS84.rds")
sf_IFN3
```

    ## Simple feature collection with 98996 features and 11 fields
    ## Geometry type: POINT
    ## Dimension:     XY
    ## Bounding box:  xmin: -18.13626 ymin: 27.70124 xmax: 4.29737 ymax: 43.7617
    ## Geodetic CRS:  WGS 84
    ## # A tibble: 98,996 × 12
    ##    id                         geometry  year plot  country version forest      
    ##  * <chr>                   <POINT [°]> <int> <chr> <chr>   <chr>   <list>      
    ##  1 01_0001_xx_A4… (-3.024625 43.21778)  2005 0001  ES      ifn3    <forest [5]>
    ##  2 01_0002_xx_A4… (-3.024621 43.20878)  2005 0002  ES      ifn3    <forest [5]>
    ##  3 01_0003_NN_A3… (-3.012307 43.19077)  2005 0003  ES      ifn3    <forest [5]>
    ##  4 01_0003_xx_A3… (-3.012307 43.19077)  2005 0003  ES      ifn3    <forest [5]>
    ##  5 01_0004_NN_A3…        (-3 43.19077)  2005 0004  ES      ifn3    <forest [5]>
    ##  6 01_0004_xx_A3…        (-3 43.19077)  2005 0004  ES      ifn3    <forest [5]>
    ##  7 01_0005_NN_A1… (-2.988971 43.18907)  2005 0005  ES      ifn3    <forest [5]>
    ##  8 01_0006_NN_A1… (-2.975386 43.19077)  2005 0006  ES      ifn3    <forest [5]>
    ##  9 01_0007_xx_A4… (-2.987695 43.18177)  2005 0007  ES      ifn3    <forest [5]>
    ## 10 01_0008_xx_A4…  (-2.97539 43.18176)  2005 0008  ES      ifn3    <forest [5]>
    ## # ℹ 98,986 more rows
    ## # ℹ 5 more variables: forest_unfiltered <list>, elevation <dbl>, slope <dbl>,
    ## #   aspect <dbl>, soil <list>

Column `forest` contains the forest inventory plots that will be used to
withdraw parameters. For example, the second `forest` object is:

``` r

sf_IFN3$forest[[2]]
```

    ## $treeData
    ## # A tibble: 30 × 9
    ##    Species       SpeciesCode   DBH Height     N   Z50   Z95 tree_ifn2 tree_ifn3
    ##    <chr>         <chr>       <dbl>  <dbl> <dbl> <dbl> <dbl>     <int>     <int>
    ##  1 Pinus radiata 28           12.0   1000 127.     NA    NA         0         1
    ##  2 Pinus radiata 28           12.6   1050  31.8    NA    NA         0         2
    ##  3 Pinus radiata 28           17.0   1050  31.8    NA    NA         0         3
    ##  4 Pinus radiata 28           16.2   1100  31.8    NA    NA         0         4
    ##  5 Pinus radiata 28           17.2   1050  31.8    NA    NA         0         5
    ##  6 Pinus radiata 28           17.0   1150  31.8    NA    NA         0         6
    ##  7 Pinus radiata 28           14.4   1000  31.8    NA    NA         0         7
    ##  8 Pinus radiata 28           10.8   1000 127.     NA    NA         0         8
    ##  9 Pinus radiata 28           20.5   1100  31.8    NA    NA         0         9
    ## 10 Pinus radiata 28           13.2   1000  31.8    NA    NA         0        10
    ## # ℹ 20 more rows
    ## 
    ## $shrubData
…
