Building species parameter tables for medfate • traits4models
…
Here we will assume that such harmonization has been conducted for
the SFI taxon list that is included as external data in the package:

file <- system.file("extdata", "NFI_ES_mapping.csv", package = "traits4models")

NFI_ES_mapping <- read.table(file, sep=";", header=TRUE, na.strings = "") |>
  tibble::as_tibble() |>
  dplyr::mutate(NFICode = as.character(NFICode))
NFI_ES_mapping

## # A tibble: 480 × 10
##    NFICode NFIName             originalName  originalNameAuthorship acceptedName
##    <chr>   <chr>               <chr>         <chr>                  <chr>       
##  1 31      Abies alba          Abies alba    Mill.                  Abies alba  
##  2 32      Abies pinsapo       Abies pinsapo Boiss.                 Abies pinsa…
##  3 307     Acacia dealbata     Acacia dealb… Link                   Acacia deal…
##  4 207     Acacia melanoxylon  Acacia melan… R.Br. in W.T.Aiton     Acacia mela…
##  5 7       Acacia spp.         Acacia        NA                     Acacia      
##  6 76      Acer campestre      Acer campest… L.                     Acer campes…
##  7 276     Acer monspessulanum Acer monspes… L.                     Acer monspe…
##  8 376     Acer negundo        Acer negundo  L.                     Acer negundo
##  9 476     Acer opalus         Acer opalus   Mill.                  Acer opalus 
## 10 676     Acer platanoides    Acer platano… L.                     Acer platan…
## # ℹ 470 more rows
## # ℹ 5 more variables: acceptedNameAuthorship <chr>, family <chr>, genus <chr>,
## #   specificEpithet <chr>, taxonRank <chr>
…
The result is an empty data frame, except for the first columns,
which correspond to taxonomic hierarchy of each entity (genus, family,
group, …), where taxonomic information from lower rank (up to family)
comes from the input data frame; and that of higher rank (order, group)
is completed using internal package data obtained from package
taxize. The number of rows in the output data frame can
be larger than the input, because by default the function creates
additional rows for species (when only sub-species of that species have
been cited) or genus (when species of that genus have been cited).

SpParams |> tibble::as_tibble()

## # A tibble: 548 × 154
##    Name         SpIndex AcceptedName Species Genus Family Order Group GrowthForm
##    <chr>          <int> <chr>        <chr>   <chr> <chr>  <chr> <chr> <lgl>     
##  1 Abies              0 Abies        NA      Abies Pinac… Pina… Gymn… NA        
##  2 Abies alba         1 Abies alba   Abies … Abies Pinac… Pina… Gymn… NA        
##  3 Abies pinsa…       2 Abies pinsa… Abies … Abies Pinac… Pina… Gymn… NA        
##  4 Acacia             3 Acacia       Acacia  Acac… Fabac… Faba… Angi… NA        
##  5 Acacia deal…       4 Acacia deal… Acacia… Acac… Fabac… Faba… Angi… NA        
##  6 Acacia mela…       5 Acacia mela… Acacia… Acac… Fabac… Faba… Angi… NA        
##  7 Acer               6 Acer         Acer    Acer  Sapin… Sapi… Angi… NA        
##  8 Acer               7 Acer         Acer    Acer  Sapin… Sapi… Angi… NA        
##  9 Acer campes…       8 Acer campes… Acer c… Acer  Sapin… Sapi… Angi… NA        
## 10 Acer monspe…       9 Acer monspe… Acer m… Acer  Sapin… Sapi… Angi… NA        
## # ℹ 538 more rows
## # ℹ 145 more variables: LifeForm <lgl>, LeafShape <lgl>, LeafSize <lgl>,
## #   PhenologyType <lgl>, DispersalType <lgl>, Hmed <lgl>, Hmax <lgl>,
## #   Z50 <lgl>, Z95 <lgl>, fHDmin <lgl>, fHDmax <lgl>, a_ash <lgl>, b_ash <lgl>,
## #   a_bsh <lgl>, b_bsh <lgl>, a_btsh <lgl>, b_btsh <lgl>, cr <lgl>, BTsh <lgl>,
## #   a_fbt <lgl>, b_fbt <lgl>, c_fbt <lgl>, a_cr <lgl>, b_1cr <lgl>,
## #   b_2cr <lgl>, b_3cr <lgl>, c_1cr <lgl>, c_2cr <lgl>, a_cw <lgl>, …
…
Some species parameters can be withdrawn from the data of the target
forest inventory where simulations are to be conducted. We load a data
frame (actually an sf object) containing data from the
Third Spanish Forest Inventory:

sf_IFN3 <- readRDS("~/OneDrive/mcaceres_work/model_initialisation/medfate_initialisation/IFN/Products/SpParamsES/IFN3/soilmod/IFN3_spain_soilmod_WGS84.rds")
sf_IFN3

## Simple feature collection with 98996 features and 10 fields
## Geometry type: POINT
## Dimension:     XY
## Bounding box:  xmin: -18.13626 ymin: 27.70124 xmax: 4.29737 ymax: 43.7617
## Geodetic CRS:  WGS 84
## # A tibble: 98,996 × 11
##    id                         geometry  year plot  country version forest      
##  * <chr>                   <POINT [°]> <int> <chr> <chr>   <chr>   <list>      
##  1 01_0001_xx_A4… (-3.024625 43.21778)  2005 0001  ES      ifn3    <forest [5]>
##  2 01_0002_xx_A4… (-3.024621 43.20878)  2005 0002  ES      ifn3    <forest [5]>
##  3 01_0003_NN_A3… (-3.012307 43.19077)  2005 0003  ES      ifn3    <forest [5]>
##  4 01_0003_xx_A3… (-3.012307 43.19077)  2005 0003  ES      ifn3    <forest [5]>
##  5 01_0004_NN_A3…        (-3 43.19077)  2005 0004  ES      ifn3    <forest [5]>
##  6 01_0004_xx_A3…        (-3 43.19077)  2005 0004  ES      ifn3    <forest [5]>
##  7 01_0005_NN_A1… (-2.988971 43.18907)  2005 0005  ES      ifn3    <forest [5]>
##  8 01_0006_NN_A1… (-2.975386 43.19077)  2005 0006  ES      ifn3    <forest [5]>
##  9 01_0007_xx_A4… (-2.987695 43.18177)  2005 0007  ES      ifn3    <forest [5]>
## 10 01_0008_xx_A4…  (-2.97539 43.18176)  2005 0008  ES      ifn3    <forest [5]>
## # ℹ 98,986 more rows
## # ℹ 4 more variables: elevation <dbl>, slope <dbl>, aspect <dbl>, soil <list>

Column forest contains the forest inventory plots that
will be used to withdraw parameters. For example, the second
forest object is:

sf_IFN3$forest[[2]]

## $treeData
## # A tibble: 29 × 9
##    Species       SpeciesCode   DBH Height     N   Z50   Z95 tree_ifn2 tree_ifn3
##    <chr>         <chr>       <dbl>  <dbl> <dbl> <dbl> <dbl>     <int>     <int>
##  1 Pinus radiata 28           12.0   1000 127.     NA    NA         0         1
##  2 Pinus radiata 28           12.6   1050  31.8    NA    NA         0         2
##  3 Pinus radiata 28           17.0   1050  31.8    NA    NA         0         3
##  4 Pinus radiata 28           16.2   1100  31.8    NA    NA         0         4
##  5 Pinus radiata 28           17.2   1050  31.8    NA    NA         0         5
##  6 Pinus radiata 28           17.0   1150  31.8    NA    NA         0         6
##  7 Pinus radiata 28           14.4   1000  31.8    NA    NA         0         7
##  8 Pinus radiata 28           10.8   1000 127.     NA    NA         0         8
##  9 Pinus radiata 28           20.5   1100  31.8    NA    NA         0         9
## 10 Pinus radiata 28           13.2   1000  31.8    NA    NA         0        10
## # ℹ 19 more rows
## 
## $shrubData
…
