…
``` r

DB_path <- "~/OneDrive/mcaceres_work/model_development/medfate_parameterization/traits_and_models/"
db <- readr::read_csv(paste0(DB_path, "data-raw/raw_trait_data/Bartlett_et_al_2016/pnas.1604088113.sd01.csv"))
```

The data looks as follows:

``` r

db
```

    ## # A tibble: 310 × 26
    ##    Group      Name          Biome `Evergreen/Decid` `Leaf P50 (MPa)` `TLP (MPa)`
    ##    <chr>      <chr>         <chr> <chr>                        <dbl>       <dbl>
    ##  1 Angiosperm Acacia gregg… Semi… E                            NA          -4.25
    ##  2 Angiosperm Acer campest… Temp… D                            -1.32       -1.9 
    ##  3 Angiosperm Acer grandid… Temp… D                            NA          -2.45
    ##  4 Angiosperm Acer monspes… Med.… D                            -1.89       -2.2 
    ##  5 Angiosperm Acer negundo  Temp… D                            NA          -1.59
    ##  6 Angiosperm Acer pseudop… Temp… D                            -1.19       -1.4 
    ##  7 Angiosperm Acer rubrum   Temp… D                            -1.7        -1.59
    ##  8 Angiosperm Acer sacchar… Temp… D                            NA          -2.78
    ##  9 Angiosperm Adansonia ru… Trop… D                            NA          -1.12
    ## 10 Angiosperm Adansonia za  Trop… D                            NA          -1.26
    ## # ℹ 300 more rows
    ## # ℹ 20 more variables: `Stem P50 (MPa)` <dbl>, `Stem P88 (MPa)` <dbl>,
    ## #   `Stem P12 (MPa)` <dbl>, `Root P50 (MPa)` <dbl>, `Gs P50 (MPa)` <dbl>,
    ## #   `Gs 95 (MPa)` <dbl>, `plant Psi_lethal (MPa)` <dbl>,
    ## #   `Psimin_predawn (MPa)` <dbl>, `Psimin_midday (MPa)` <dbl>,
    ## #   `Psimin_midday and/or predawn Method` <chr>,
    ## #   `Reference (for Leaf P50)` <chr>, `Reference (for TLP)` <chr>, …
…
Columns `Reference` and `DOI` indicates the bibliographic source of the
data, whereas `Priority` allows defining an order in which trait data
sources will be processed. Those with highest priority order (lowest
value of `Priority`) will be given preference.

``` r

db_var
```

    ## # A tibble: 310 × 11
    ##    originalName    VCleaf_P50 VCstem_P50 VCstem_P88 VCstem_P12 VCroot_P50 Gs_P50
    ##    <chr>                <dbl>      <dbl>      <dbl>      <dbl>      <dbl>  <dbl>
    ##  1 Acacia greggii       NA         NA         NA        NA          NA     NA   
    ##  2 Acer campestre       -1.32      -3.87      -4.60     -3.19       NA     NA   
    ##  3 Acer grandiden…      NA         -3.66      -7.14     -0.92       -0.86  NA   
    ##  4 Acer monspessu…      -1.89      -3.31      -4.61     -2.02       -1.6   NA   
    ##  5 Acer negundo         NA         -1.34      -2.74     -0.451      -0.3   NA   
    ##  6 Acer pseudopla…      -1.19      -2.37      -2.71     -1.95       NA     NA   
    ##  7 Acer rubrum          -1.7       -3.9       -6        -2.5        -1.69  NA   
    ##  8 Acer saccharum       NA         -3.97      NA        NA          -1.5   -1.56
    ##  9 Adansonia rubr…      NA         -1.1       -2.82     -0.293      NA     NA   
    ## 10 Adansonia za         NA         -1.7       -3.49     -0.59       NA     NA   
    ## # ℹ 300 more rows
    ## # ℹ 4 more variables: Gs_P95 <dbl>, Reference <chr>, DOI <chr>, Priority <dbl>
…
