Trait database harmonization • traits4models
…
DB_path <- "~/OneDrive/EMF_datasets/PlantTraitDatabases/"
db <- readr::read_csv(paste0(DB_path, "Sources/Bartlett_et_al_2016/pnas.1604088113.sd01.csv"))

The data looks as follows:

db

## # A tibble: 310 × 26
##    Group      Name          Biome `Evergreen/Decid` `Leaf P50 (MPa)` `TLP (MPa)`
##    <chr>      <chr>         <chr> <chr>                        <dbl>       <dbl>
##  1 Angiosperm Acacia gregg… Semi… E                            NA          -4.25
##  2 Angiosperm Acer campest… Temp… D                            -1.32       -1.9 
##  3 Angiosperm Acer grandid… Temp… D                            NA          -2.45
##  4 Angiosperm Acer monspes… Med.… D                            -1.89       -2.2 
##  5 Angiosperm Acer negundo  Temp… D                            NA          -1.59
##  6 Angiosperm Acer pseudop… Temp… D                            -1.19       -1.4 
##  7 Angiosperm Acer rubrum   Temp… D                            -1.7        -1.59
##  8 Angiosperm Acer sacchar… Temp… D                            NA          -2.78
##  9 Angiosperm Adansonia ru… Trop… D                            NA          -1.12
## 10 Angiosperm Adansonia za  Trop… D                            NA          -1.26
## # ℹ 300 more rows
## # ℹ 20 more variables: `Stem P50 (MPa)` <dbl>, `Stem P88 (MPa)` <dbl>,
## #   `Stem P12 (MPa)` <dbl>, `Root P50 (MPa)` <dbl>, `Gs P50 (MPa)` <dbl>,
## #   `Gs 95 (MPa)` <dbl>, `plant Psi_lethal (MPa)` <dbl>,
## #   `Psimin_predawn (MPa)` <dbl>, `Psimin_midday (MPa)` <dbl>,
## #   `Psimin_midday and/or predawn Method` <chr>,
## #   `Reference (for Leaf P50)` <chr>, `Reference (for TLP)` <chr>, …
…
Note that we also renamed the column containing the plant species
into originalName. The original name represents the taxon
name that is used by the data set owner/provider and is key for
taxonomic harmonization. The result of this step should contain
originalName, plus one column for each harmonized trait,
and (preferably) a column called Reference.

db_var

## # A tibble: 310 × 9
##    originalName    VCleaf_P50 VCstem_P50 VCstem_P88 VCstem_P12 VCroot_P50 Gs_P50
##    <chr>                <dbl>      <dbl>      <dbl>      <dbl>      <dbl>  <dbl>
##  1 Acacia greggii       NA         NA         NA        NA          NA     NA   
##  2 Acer campestre       -1.32      -3.87      -4.60     -3.19       NA     NA   
##  3 Acer grandiden…      NA         -3.66      -7.14     -0.92       -0.86  NA   
##  4 Acer monspessu…      -1.89      -3.31      -4.61     -2.02       -1.6   NA   
##  5 Acer negundo         NA         -1.34      -2.74     -0.451      -0.3   NA   
##  6 Acer pseudopla…      -1.19      -2.37      -2.71     -1.95       NA     NA   
##  7 Acer rubrum          -1.7       -3.9       -6        -2.5        -1.69  NA   
##  8 Acer saccharum       NA         -3.97      NA        NA          -1.5   -1.56
##  9 Adansonia rubr…      NA         -1.1       -2.82     -0.293      NA     NA   
## 10 Adansonia za         NA         -1.7       -3.49     -0.59       NA     NA   
## # ℹ 300 more rows
## # ℹ 2 more variables: Gs_P95 <dbl>, Reference <chr>
…
## Found unique non-synonym case for record # 308

The function requires a column called originalName. It
performs both direct and fuzzy matching, which may lead to large
processing time for large datasets. If we inspect the result, we will
see the additional columns, informing about accepted names and parent
taxonomic entities:

db_post

## # A tibble: 310 × 15
##    originalName acceptedName acceptedNameAuthorship family genus specificEpithet
##    <chr>        <chr>        <chr>                  <chr>  <chr> <chr>          
##  1 Acacia greg… Senegalia g… (A.Gray) Britton & Ro… Fabac… Sene… greggii        
##  2 Acer campes… Acer campes… L.                     Sapin… Acer  campestre      
##  3 Acer grandi… Acer saccha… (Nutt.) Desmarais      Sapin… Acer  saccharum      
##  4 Acer monspe… Acer monspe… L.                     Sapin… Acer  monspessulanum 
##  5 Acer negundo Acer negundo L.                     Sapin… Acer  negundo        
##  6 Acer pseudo… Acer pseudo… L.                     Sapin… Acer  pseudoplatanus 
##  7 Acer rubrum  Acer rubrum  L.                     Sapin… Acer  rubrum         
##  8 Acer saccha… Acer saccha… Marshall               Sapin… Acer  saccharum      
##  9 Adansonia r… Adansonia f… (Jum. & H.Perrier) H.… Malva… Adan… fony           
## 10 Adansonia za Adansonia za Baill.                 Malva… Adan… za             
## # ℹ 300 more rows
## # ℹ 9 more variables: taxonRank <chr>, VCleaf_P50 <dbl>, VCstem_P50 <dbl>,
## #   VCstem_P88 <dbl>, VCstem_P12 <dbl>, VCroot_P50 <dbl>, Gs_P50 <dbl>,
## #   Gs_P95 <dbl>, Reference <chr>
…
